<?xml version="1.0" standalone="no"?>
<!DOCTYPE svg PUBLIC "-//W3C//DTD SVG 20010904//EN"
 "http://www.w3.org/TR/2001/REC-SVG-20010904/DTD/svg10.dtd">
<svg version="1.0" xmlns="http://www.w3.org/2000/svg"
 width="16px" height="13px" viewBox="0 0 180.000000 138.000000"
 preserveAspectRatio="xMidYMid meet">

<g transform="translate(0.000000,138.000000) scale(0.100000,-0.100000)"
fill="#fff" stroke="none">
<path d="M1121 1344 c-34 -28 -47 -76 -33 -114 6 -14 89 -115 186 -225 l175
-200 -687 -5 c-526 -4 -692 -8 -709 -18 -51 -29 -70 -104 -37 -150 37 -53 19
-52 754 -52 l682 0 -31 -38 c-17 -20 -98 -113 -181 -207 -103 -117 -152 -180
-156 -201 -7 -37 15 -85 48 -108 28 -20 87 -21 114 -1 12 8 135 145 275 305
272 311 295 345 269 399 -18 36 -524 617 -550 631 -34 18 -87 12 -119 -16z"/>
</g>
</svg>
