<?xml version="1.0" standalone="no"?>
<!DOCTYPE svg PUBLIC "-//W3C//DTD SVG 1.1//EN" "http://www.w3.org/Graphics/SVG/1.1/DTD/svg11.dtd" >
<!--
2017-8-19: Created with FontForge (http://fontforge.org)
-->
<svg xmlns="http://www.w3.org/2000/svg" xmlns:xlink="http://www.w3.org/1999/xlink" version="1.1">
<metadata>
Created by FontForge 20160405 at Sat Aug 19 14:03:35 2017
 By Apache
Copyright (c) 2017, Apache
</metadata>
<defs>
<font id="Flaticon" horiz-adv-x="512" >
  <font-face 
    font-family="Flaticon"
    font-weight="400"
    font-stretch="normal"
    units-per-em="512"
    panose-1="2 0 5 3 0 0 0 0 0 0"
    ascent="448"
    descent="-64"
    bbox="-0.012207 -64.002 512 447.999"
    underline-thickness="25.6"
    underline-position="-51.2"
    unicode-range="U+0020-F102"
  />
    <missing-glyph />
    <glyph glyph-name="space" unicode=" " horiz-adv-x="200" 
 />
    <glyph glyph-name="uniF102" unicode="&#xf102;" 
d="M344.774 366.591l161.812 -161.827c7.21875 -6.95898 7.21875 -18.5684 0 -25.543l-161.812 -161.812c-6.95801 -7.21875 -18.584 -7.21875 -25.8027 0c-6.97559 6.95898 -6.97559 18.584 0 25.8037l130.837 130.593h-431.745
c-10.0645 0 -18.0635 8.25977 -18.0635 18.3242s7.99902 18.0645 18.0635 18.0801h431.745l-130.837 130.838c-6.97559 6.95898 -6.97559 18.5674 0 25.543c7.21875 7.21875 18.8281 7.21875 25.8027 0z" />
    <glyph glyph-name="uniF100" unicode="&#xf100;" 
d="M112.877 136.15l-77.0439 -77.0488c-3.36133 -3.35938 -7.76465 -5.04102 -12.1689 -5.04102s-8.80859 1.68066 -12.1689 5.04102c-6.72168 6.7207 -6.72168 17.6182 0 24.3398l77.0459 77.0488c6.7207 6.71973 17.6162 6.71973 24.3379 0
c6.71973 -6.72168 6.71973 -17.6182 -0.00195312 -24.3398zM152.69 -11.4844c6.7207 6.71973 17.6182 6.71973 24.3379 0c6.7207 -6.72168 6.7207 -17.6182 0 -24.3398l-23.1367 -23.1367c-3.36035 -3.36035 -7.76465 -5.04102 -12.1689 -5.04102
s-8.80859 1.68262 -12.1689 5.04102c-6.71973 6.72168 -6.71973 17.6191 0 24.3398zM491.991 376.05c-1.61914 -4.05664 -3.33301 -8.34863 -5.09766 -12.873l-112.277 -287.663c-15.9551 -40.8789 -27.6016 -62.3555 -46.9697 -66.2949
c-2.07715 -0.423828 -4.08789 -0.624023 -6.04199 -0.624023c-15.1338 0 -26.9277 12.0781 -41.4209 26.9199c-0.389648 0.397461 -0.783203 0.798828 -1.17676 1.2041l-181.303 -11.8672c-7.15625 -0.459961 -13.8428 3.54395 -16.7998 10.0732
c-2.95703 6.52734 -1.56152 14.2031 3.50586 19.2705l88.6045 88.6045l-75.9395 75.9385c-21.8672 21.8672 -34.6416 39.0664 -30.7656 57.2139c4.26074 19.9443 24.4512 27.6484 55.0117 39.3076c4.0625 1.5498 8.36328 3.19141 12.8857 4.95605l287.664 112.282
c41.0996 16.0391 63.0137 21.291 76.417 7.78711c13.7949 -13.9023 5.80176 -33.9258 -6.29688 -64.2354zM468.886 412.141c-6.48828 -1.60254 -17.1426 -4.93164 -34.5 -11.7041l-287.663 -112.284c-4.60742 -1.79785 -8.99121 -3.47168 -13.1309 -5.05176
c-12.6631 -4.83203 -28.1475 -10.7383 -33.0654 -14.6621c1.23633 -2.87695 5.58887 -10.0625 20.8887 -25.3623l75.9395 -75.9385l155.313 155.313c6.72168 6.71973 17.6191 6.71973 24.3398 0c6.71973 -6.7207 6.71973 -17.6182 0 -24.3389l-167.402 -167.4
c-0.0273438 -0.0283203 -0.0556641 -0.0546875 -0.0820312 -0.0830078c-0.0283203 -0.0283203 -0.0546875 -0.0527344 -0.0830078 -0.0810547l-68.3623 -68.3643l105.638 6.91504l-20.3877 20.3877c-6.7207 6.72168 -6.7207 17.6182 0 24.3398
c3.36133 3.35938 7.76465 5.04102 12.1689 5.04102s8.80859 -1.68066 12.1689 -5.04102l46.1357 -46.1318c2.83496 -2.83496 5.49512 -5.55957 8.00684 -8.13184c5.61523 -5.74902 12.374 -12.6709 16.3691 -15.4951c3.19141 3.62402 9.7002 14.0518 21.374 43.9658
l112.278 287.661c1.79883 4.60938 3.54492 8.98535 5.19434 13.1172c3.08008 7.71484 6.62402 16.5957 8.86133 23.3291z" />
    <glyph glyph-name="uniF101" unicode="&#xf101;" 
d="M167.009 366.568c7.21777 7.21777 18.582 7.21777 25.7998 0c6.97461 -6.97461 6.97461 -18.582 0 -25.54l-130.82 -130.82h431.69c10.0625 0 18.3213 -7.99902 18.3213 -18.0615c0 -10.0635 -8.25879 -18.3223 -18.3213 -18.3223h-431.69l130.82 -130.576
c6.97461 -7.21875 6.97461 -18.8418 0 -25.7998c-7.21777 -7.21875 -18.582 -7.21875 -25.7998 0l-161.79 161.79c-6.97461 6.97461 -6.97461 18.582 0 25.54z" />
  </font>
</defs></svg>
